[{
  "_id": {
    "$oid": "649079bf6dbc82dfd3ccf71c"
  },
  "identifier": 2,
  "title": "AI4Industry",
  "summary": "Flexible manufacturing represents a key element of the Industry 4.0 objective. Complete automation and possibility to quickly adapt production to various customer requirements will cause considerable advances in large-scale manufacturing. Symbolic and Machine Learning techniques are constantly being developed, tested, and implemented to construct ‘smart’ factories. However, we cannot simply integrate AI methods in industry and allow them to completely automate the systems. Humans need to have transparency and understanding of decision-making processes of AI in manufacturing, in order to build trust of such systems. The AI4Industry pilot focuses on developing methods for aiding flexible manufacturing in ‘smart’ factories, as well as advance the area of Explainable AI (XAI) in order to integrate humans and AI and aid flexible manufacturing. The idea of the pilot is to showcase methods for aiding flexible manufacturing on an experimental facility, to present the usefulness of these methods and the possibility to later implement them in a large-scale industrial environment.",
  "description": "<p>The experimental facility represents a small-scale factory for producing plastic cans closed with plastic lids. It is a sort of a toy product. The setup is equipped with 2 assembly modules (modules that perform cap on can assembly – module 1 puts red or blue caps, module 2 puts red or white caps on cans), 1 feeding station (that puts cans into production and can optionally insert a metal inlay in the product), 1 sorting station (which sorts the final products into a customer or user preference), and, finally, 1 disassembly station (which consists of 2 parts – a robotic manipulator that takes products and moves them to a holding place where it disassembles it afterwards). This setup used for demonstrating how the proposed AI methods in industry perform, what it means to add flexibility and transparency to the system, and how we can scale them to large facilities.</p><br />\\n<figure role=\\\"group\\\" class=\\\"align-center\\\"><article data-quickedit-entity-id=\\\"media/161\\\" class=\\\"media w12 p-rltv\\\"><div class=\\\"l-r-i\\\"><br />\\n\\t\\t\\t<picture><source srcset=\\\"/sites/default/files/styles/free_100/public/2021-04/figure1.png?itok=lr1pU4D7 100w, /sites/default/files/styles/free_300/public/2021-04/figure1.png?itok=Uuu8p4ew 300w, /sites/default/files/styles/free_600/public/2021-04/figure1.png?itok=bg9rzAKs 570w\\\" media=\\\"(min-width: 1px)\\\" type=\\\"image/png\\\" sizes=\\\"1vw\\\" data-originial-sizes=\\\"1vw\\\"></source><img src=\\\"/sites/default/files/styles/free_100/public/2021-04/figure1.png?itok=lr1pU4D7\\\" alt=\\\"Figure 1\\\" typeof=\\\"foaf:Image\\\" /></picture></div><br />\\n<br />\\n<br />\\n<br />\\n        <div class=\\\"inverted fs-3 p-abslt m0 w-a copyright ff-sec\\\">@ SIEMENS AG - use with permission</div><br />\\n    <br />\\n  </article><figcaption>Fig.1: Skill offered by a machine in Protégé</figcaption></figure><p>The problem we want to solve is divided into 2 parts: <strong>adding flexibility</strong> and <strong>adding transparency</strong> to manufacturing. The AI4Industry pilot consists of 3 main research areas, that can be correlated to 3 approaches to solve the problem: <strong>Skill Matching and Explanations</strong>, <strong>Planning</strong>, and <strong>Time Prediction</strong>.</p><br />\\n<p><strong>Skill matching and explanations.</strong> To understand what skill matching is, we first need to understand the notion of a skill. A skill represents a description of a machine’s capabilities. In other words, a skill represents an action or a process that the machine can perform with respect to certain restrictions it has. As an example, consider an assembling action, that represents assembling of caps on cans. We know the type of action <strong>and</strong> we know the 2 types of materials used (caps and cans). We can also know certain restrictions that the skill has (e.g. the machine can only assemble caps on cans if the cap has a diameter 20mm and the can has diameter 20mm). This a description of a skill and it can be modeled in various ways. How we represent skills is through ontologies, specifically model them in the programming package Protégé. Ontologies represent formal naming's, definitions of concepts, relations between concepts, data properties, etc. They are based on Description Logics (DLs), which are an expressive and decidable part of First Order Logic (FOL). This gives the intelligent part of the model by allowing for reasoning capabilities, such as checking whether a logical expression is satisfiable with respect to the domain knowledge, checking whether everything is consistent in the model, listing of hierarchies and relations between concepts, etc. Protégé is an easy to use tool that offers all these features, which is why we use it.  Figure 1 represents a skill offered by a machine modeled in Protégé.</p><br />\\n<p>Now that we know the definition of a skill and how we represent it, we can move onto skill matching. Skill matching in the scope of industry represents matching a skill that a machine offers to a requirement that a product has. For e.g., consider the skill that is shown on Figure 1. The skill represents an assembly process, where a robot presses red or blue caps with width up to 180mm (adjustable gripper for different caps – if a can with larger width comes the machine can be reconfigured to work with it) on cans with width of 20mm. A requirement, on the other hand, can be considered also a type of a skill description, except this is from the product side. A skill requirement would ask for a specific process (i.e. action/operation/skill) and machines that are in production will need to answer to these requirements. Skill matching also indicates whether a machine that has a certain skill can answer to requirements of a product that has come into production. This is done by utilizing reasoning techniques in ontologies to ask for a contradiction between the skill offer and skill requirement.</p><br />\\n<figure role=\\\"group\\\" class=\\\"align-center\\\"><article data-quickedit-entity-id=\\\"media/162\\\" class=\\\"media w12 p-rltv\\\"><div class=\\\"l-r-i\\\"><br />\\n\\t\\t\\t<picture><source srcset=\\\"/sites/default/files/styles/free_100/public/2021-04/Figure%202-%20A%20skill%20requirement%20and%20data%20properties%20of%20a%20material.png?itok=0PeypueY 100w, /sites/default/files/styles/free_300/public/2021-04/Figure%202-%20A%20skill%20requirement%20and%20data%20properties%20of%20a%20material.png?itok=BpL7SAAI 300w, /sites/default/files/styles/free_600/public/2021-04/Figure%202-%20A%20skill%20requirement%20and%20data%20properties%20of%20a%20material.png?itok=HO1ew2mW 570w\\\" media=\\\"(min-width: 1px)\\\" type=\\\"image/png\\\" sizes=\\\"1vw\\\" data-originial-sizes=\\\"1vw\\\"></source><img src=\\\"/sites/default/files/styles/free_100/public/2021-04/Figure%202-%20A%20skill%20requirement%20and%20data%20properties%20of%20a%20material.png?itok=0PeypueY\\\" alt=\\\"Skill requirements\\\" typeof=\\\"foaf:Image\\\" /></picture></div><br />\\n<br />\\n<br />\\n<br />\\n        <div class=\\\"inverted fs-3 p-abslt m0 w-a copyright ff-sec\\\">@ SIEMENS AG - use with permission</div><br />\\n    <br />\\n  </article><figcaption>Fig.2: Skill requirements</figcaption></figure><p>Upon receiving the output from skill matching, we have a list of machines with certain skills that can or cannot answer to a product’s requirements. The explanations part represents generating explanations for why there is a negative match between a machine’s skill and a product’s requirements. This gives understanding why a product cannot be manufactured and users in the facility can quickly remedy the situation, whether that is reconfiguring a specific machine or replacing it with another one that can answer to the product’s requirements. To exemplify this, consider again the skill offer from Figure 1, and a product requirement with specific properties of the parts used in Figure 2. An explanation consists of presenting the reasons why this is a negative match. To generate explanations, we utilize something that is called <strong>justifications </strong>in ontologies. Justifications represent a minimal subset of ontology axioms, for which an entailment holds (i.e. it logically follows from them). An explanation for a negative match, between the skill offer in Figure 1 and skill requirement in Figure 2 (top left) is shown on Figure 3. From Figure 3, we can interpret the statements of the explanation. Starting from the top statement 1, we see that involving an initial material is the same as involving a material in the process AssemblyBR, which involves 2 things (statement line 2). Statements 5, 3, and 7 show us that one of the involved materials of the requirement is a physical object named blueCap_1, which is a type of Cap and has 200mm width. Statement 6 is what we call a closure statement, stating the main reason why there is a negative match between the offer and request, that is the width. If we compare statements 3 and 8, we can extract that the requested cap is 200mm, but the offered one is up to 180mm and that they are not compatible. This is a raw output from the explanation mechanism. Currently, we are adjusting the presentation of explanations according to users familiar with the production facility.</p><br />\\n<figure role=\\\"group\\\" class=\\\"align-center\\\"><article data-quickedit-entity-id=\\\"media/163\\\" class=\\\"media w12 p-rltv\\\"><div class=\\\"l-r-i\\\"><br />\\n\\t\\t\\t<picture><source srcset=\\\"/sites/default/files/styles/free_100/public/2021-04/Figure%203-%20Explanation%20for%20a%20negative%20match%20of%20a%20machine%27s%20offer%20and%20a%20products%20requirement..png?itok=EfzjOAUO 100w, /sites/default/files/styles/free_300/public/2021-04/Figure%203-%20Explanation%20for%20a%20negative%20match%20of%20a%20machine%27s%20offer%20and%20a%20products%20requirement..png?itok=ZI4hTO8O 300w, /sites/default/files/styles/free_600/public/2021-04/Figure%203-%20Explanation%20for%20a%20negative%20match%20of%20a%20machine%27s%20offer%20and%20a%20products%20requirement..png?itok=Siib8qA0 570w\\\" media=\\\"(min-width: 1px)\\\" type=\\\"image/png\\\" sizes=\\\"1vw\\\" data-originial-sizes=\\\"1vw\\\"></source><img src=\\\"/sites/default/files/styles/free_100/public/2021-04/Figure%203-%20Explanation%20for%20a%20negative%20match%20of%20a%20machine%27s%20offer%20and%20a%20products%20requirement..png?itok=EfzjOAUO\\\" alt=\\\"Explanation from a negative match\\\" typeof=\\\"foaf:Image\\\" /></picture></div><br />\\n<br />\\n<br />\\n<br />\\n        <div class=\\\"inverted fs-3 p-abslt m0 w-a copyright ff-sec\\\">@ SIEMENS AG - used with permission</div><br />\\n    <br />\\n  </article><figcaption>Fig.3: Explanation</figcaption></figure><p><strong>Action planning</strong> is an AI method for selecting actions that achieve a desired goal from a desired initial state. As a demonstration of Integrative AI, we use Answer Set Programming with External Computations to integrate Answer Set Planning with ontological reasoning over an existing industrial OWL ontology that is in use at Siemens and evosoft. This permits us to perform expressive reasoning than would be impossible within the ontology while it also permits us to reuse the existing ontology without converting either from ASP to OWL or vice versa. The resulting planning prototype can generate plans for producing certain sequences of configurable products and it can provide alternative solutions with small modifications of the goal or the time horizon if the goal as it is stated is not achievable.<a target=\\\"_blank\\\" rel=\\\"nofollow\\\"> The solver tool that is used in this pilot is called <strong>Hexlite</strong></a><a href=\\\"https://www.ai4eu.eu/ai4industry#_ftn1\\\" target=\\\"_blank\\\" rel=\\\"nofollow\\\"><strong><strong>[1]</strong></strong></a>. During the work in this pilot was developed a plugin for integrating OWL ontologies into action planning with Hexlite. The solver has already been published to the AI4EU platform as a component and we plan to publish the OWL ontology integration plugin in future milestones.</p><br />\\n<p><strong>The time prediction </strong>is concerned with estimating the production time from a given production plan. We use a neural network to predict the time that a batch of production items (bases that are capped in the production process) will take to be finished. The production plan, which is the input to the neural network, consists of the order and time of feeding of the bases.</p><br />\\n<p>Since the available data could not be used for this scenario we have written a simulation of the process and trained the neural networks on the simulated data. We tried different architectures, loss functions and components for the neural network. The attention architecture, which could have provided explainability, did not train well. We ended up with an architecture of stacked LSTMs with temporal dropout. In the case that the feeding time of the bases is variable, we have developed the special preprocessing step which enables the training of the neural networks. Using a quantile loss for training the network reduced even slightly the absolute mean error.</p><br />\\n<p>The time prediction part of the pilot is connected with the research topic “Verifiable AI” of the work package 7.2. To rely on a machine learning approach one needs to have an idea of the weaknesses of the system. Uncertainty estimation is one method to determine the variance of a model and forecast a fault. The aim of the experiments is to estimate the uncertainty of the model to distinguish situation where the model is confident and those where the prediction of the model has a high variance and therefore is less reliable. Therefore, different approaches to measure uncertainty are evaluated on the use-case described above.</p><br />\\n<h4>AI4EU platform exploitation</h4><br />\\n<p><strong>Siemens AG</strong> are currently identifying assets that can be presented to get better insights of the method and assessing the IPR situation.</p><br />\\n<p>The solver tool that is used in this pilot by <strong>TU Wien</strong> is called <strong>Hexlite<a href=\\\"https://www.ai4eu.eu/ai4industry#_ftn1\\\" target=\\\"_blank\\\" rel=\\\"nofollow\\\"><strong>[1]</strong></a></strong>. During the work in this pilot was developed a plugin for integrating OWL ontologies into action planning with Hexlite. The solver has already been published to the AI4EU platform as a component and we plan to publish the OWL ontology integration plugin in future milestones.</p><br />\\n<p><strong>Fraunhofer IAIS</strong> are planning to publish the time prediction part (or at least parts of it) on the AI4EU platform. The implementation and the upload are pending on approval due to IP issues of the involved partners.</p><br />\\n<h4>Collaboration of the organizations</h4><br />\\n<p>Our final step is providing a showcase of the methods in this scenario, presenting how they aid flexible manufacturing in an interactive manner. In close collaboration the three parties work on a video demonstration to present the outcomes from the AI4Industry pilot. Furthermore, we plan on publishing the theoretical and practical aspects of the methods developed by all partners in a joint use-case publication in the following months, as a part of the assessment phase of the project.</p><br />\\n<h4>Timeline and achievements</h4><br />\\n<p>Within the scope of the project, March 2019 was the starting month of the project and in the following 3 months, until June 2019, the pilot was initializing the necessary assets to work on the pilot. This resembles acquiring the necessary data, both knowledge and sensor data, to construct the models and develop the previously described methods.</p><br />\\n<p>From June 2019 until October 2020, with an extension of approximately 4-5 weeks due to the Covid-19 situation, all 3 partners actively engaged in discussions and hands on research and development of the symbolic AI and Machine Learning methods that are utilized to achieve and aid flexible manufacturing in a scalable experimental facility.</p><br />\\n<p>As of the current moment the AI4Industry pilot is finalizing the execution phase and entering the assessment phase. In this time the parties acquired the results from the developed functions and work on constructing a video presentation to demonstrate the benefits of the AI methods in an industrial scenario.</p><br />\\n<p> </p>",
  "publisher": "??",
  "website": "https://github.com/hexhex/hexlite",
  "keywords": [],
  "mediaurls": [],
  "industry_sectors_ids": [
    8
  ],
  "application_areas_ids": [
    7
  ],
  "research_areas_ids": [
    16
  ],
  "dateModified": {
    "$date": "2023-06-20T15:06:14.153Z"
  },
  "datePublished": {
    "$date": "2023-06-19T17:52:31.665Z"
  },
  "datasets_ids": [],
  "papers_ids": []
},
{
  "_id": {
    "$oid": "649081ca9adf718019ac63c3"
  },
  "identifier": 3,
  "title": "AI4Healthcare",
  "summary": "At the beginning of the AI4EU program, the healthcare pilot aimed to provide brain imaging as reference dataset. The collect phase has been planned from March to June 2020. Due to the COVID-19 pandemic, we proposed to collect chest Computed Tomography (CT scan) dataset from many hospitals. As explained hereafter, the interpretation of this medical exam is very useful for confirmation of COVID-19 and the usage of AI is key to facilitate the work of radiologists.",
  "description": "<p><span><span>Today, Europe is the continent badly affected by the COVID-19 pandemic. The global containment strategy currently ongoing in most European countries aims to slow down the dissemination and reverse the epidemic growth, hoping to lower the number of cases and the speed of dissemination. However, the capability to deploy at scale the screening of the population remains critical to switch from this global containment to more specific ones. Today, the RT-PCR test provides results between a few hours and two days<a href=\\\"#_ftn1\\\" title=\\\"\\\" rel=\\\"nofollow\\\"><span><span><span><span><span lang=\\\"EN-GB\\\" xml:lang=\\\"EN-GB\\\" xml:lang=\\\"EN-GB\\\">[1]</span></span></span></span></span></a>. Moreover, it cannot be generalized everywhere due to a lack of availability. Others complementary solutions need to be deployed, particularly in the hospital environment.</span></span></p><br />\\n<p><span><span>A recent study done on a large dataset<a href=\\\"#_ftn2\\\" title=\\\"\\\" rel=\\\"nofollow\\\"><span><span><span><span><span lang=\\\"EN-GB\\\" xml:lang=\\\"EN-GB\\\" xml:lang=\\\"EN-GB\\\">[2]</span></span></span></span></span></a> has demonstrated that clinical signs of the COVID-19 are visible on chest Computed Tomography (CT scan), and expert radiologists can detect them. A recent Chinese-American study<a href=\\\"#_ftn3\\\" title=\\\"\\\" rel=\\\"nofollow\\\"><span><span><span><span><span lang=\\\"EN-GB\\\" xml:lang=\\\"EN-GB\\\" xml:lang=\\\"EN-GB\\\">[3]</span></span></span></span></span></a> has shown the capability to differentiate the COVID-19 infection to other viral pneumonia.</span></span></p><br />\\n<p><span><span>All the published articles<a href=\\\"#_ftn4\\\" title=\\\"\\\" rel=\\\"nofollow\\\"><span><span><span><span><span lang=\\\"EN-GB\\\" xml:lang=\\\"EN-GB\\\" xml:lang=\\\"EN-GB\\\">[4]</span></span></span></span></span></a><sup>,</sup><a href=\\\"#_ftn5\\\" title=\\\"\\\" rel=\\\"nofollow\\\"><span><span><span><span><span lang=\\\"EN-GB\\\" xml:lang=\\\"EN-GB\\\" xml:lang=\\\"EN-GB\\\">[5]</span></span></span></span></span></a><sup>,</sup><a href=\\\"#_ftn6\\\" title=\\\"\\\" rel=\\\"nofollow\\\"><span><span><span><span><span lang=\\\"EN-GB\\\" xml:lang=\\\"EN-GB\\\" xml:lang=\\\"EN-GB\\\">[6]</span></span></span></span></span></a> confirm the visibility of signs at an early stage. They confirm also the superior and excellent sensitivity of the scanner compared to RT-PCR test. For instance, a Chinese study<a href=\\\"#_ftn7\\\" title=\\\"\\\" rel=\\\"nofollow\\\"><span><span><span><span><span lang=\\\"EN-GB\\\" xml:lang=\\\"EN-GB\\\" xml:lang=\\\"EN-GB\\\">[7]</span></span></span></span></span></a>, based on more than 1 000 patients, reports a better sensibility of chest CT (98%) than the RT-PCR one (71%): </span></span></p><br />\\n<p><span><span><em>“About 81% of the patients with negative RT-PCR results but positive chest CT scans were re-classified as highly likely or probable cases with COVID-19, by the comprehensive analysis of clinical symptoms, typical CT manifestations and dynamic CT follow-ups”. </em></span></span></p><br />\\n<p><span><span>To conclude, the use of chest CT offers many advantages such as</span></span></p><br />\\n<ul><li><span><span><span>Scans are routinely used for pulmonary diseases,</span></span></span></li><br />\\n<li><span><span><span> Its protocol is well-known by the medical staff of European countries </span></span></span></li><br />\\n</ul><ul><li><span><span><span><span lang=\\\"EN-GB\\\" xml:lang=\\\"EN-GB\\\" xml:lang=\\\"EN-GB\\\"></span>The use of this kind of equipment is extremely high and well-spread in hospitals and in the medical environment as a whole</span></span></span></li><br />\\n</ul><p><span><span>In this context, Artificial Intelligence (AI) can help to test suspected population in a shorter time than RT-PCR test can do with a higher constancy of its results. A recent publication of a China study<a href=\\\"#_ftn8\\\" title=\\\"\\\" rel=\\\"nofollow\\\"><span><span><span><span><span lang=\\\"EN-GB\\\" xml:lang=\\\"EN-GB\\\" xml:lang=\\\"EN-GB\\\">[8]</span></span></span></span></span></a> made on 3 332 patients reveals an interesting level of performances obtained by the use of Deep Learning techniques. AI can also provide other algorithms like categorization of the kind of pulmonary diseases (COVID-19, SRAS or Community Acquired Pneumonia) and definition of the disease severity degree.</span></span></p><br />\\n<p><span><span>Some AI algorithms are currently on the market (like the Chinese company Infervision<a href=\\\"#_ftn9\\\" title=\\\"\\\" rel=\\\"nofollow\\\"><span><span><span><span><span lang=\\\"EN-GB\\\" xml:lang=\\\"EN-GB\\\" xml:lang=\\\"EN-GB\\\">[9]</span></span></span></span></span></a>). They offer interesting results in terms of performances, but raise significant issues such as explainability and verifiability of their results.</span></span></p><br />\\n<p><span><span>Training of algorithms should also work with large and real data sets, included in research and medical programs, to ensure the robustness of the results and their scalability</span></span></p><br />\\n<p><span><span>Europe must help to set-up a robust and European-based values approach, allowing the creation of algorithms respecting the ﬁve interconnected dimensions of human-centred AI considered in AI4EU<a href=\\\"#_ftn10\\\" title=\\\"\\\" rel=\\\"nofollow\\\"><span><span><span><span><span lang=\\\"EN-GB\\\" xml:lang=\\\"EN-GB\\\" xml:lang=\\\"EN-GB\\\">[10]</span></span></span></span></span></a>.</span></span></p><br />\\n<p><span><span></span></span></p><br />\\n<p><span><span>This pilot aims to provide a reference dataset in healthcare, which can be used to define algorithms which detect COVID-19 disease. This dataset contains medical images, diagnostic information as well as radiological reports.</span></span></p><br />\\n<p><span><span>The first phase of this pilot consists in the definition, collection and formatting of a publishable corpus. The data collected will be from the field of conventional radiology. They will be composed of performed image, the age and sex of the patient, the clinical indications, the purpose of the examination and finally the radiological report.</span></span></p><br />\\n<p><span><span>The corpus will consist of at least 100,000 complete records from at least 5 different producing facilities. The collected data will be anonymized.</span></span></p><br />\\n<article data-quickedit-entity-id=\\\"media/171\\\" class=\\\"align-center media w12 p-rltv\\\"><div class=\\\"l-r-i\\\"><br />\\n\\t\\t\\t<picture><source srcset=\\\"/sites/default/files/styles/16_9_100/public/2021-04/Figure1.png?itok=KZtmwoYl 100w, /sites/default/files/styles/16_9_300/public/2021-04/Figure1.png?itok=8oCodIZq 300w, /sites/default/files/styles/16_9_600/public/2021-04/Figure1.png?itok=YhqMkzcm 600w, /sites/default/files/styles/16_9_1200/public/2021-04/Figure1.png?itok=2e9XdNuT 1200w, /sites/default/files/styles/16_9_1600/public/2021-04/Figure1.png?itok=crzbMfnE 1600w, /sites/default/files/styles/16_9_2400/public/2021-04/Figure1.png?itok=OxQ6aNXL 2400w\\\" media=\\\"(min-width: 1px)\\\" type=\\\"image/png\\\" sizes=\\\"1vw\\\" data-originial-sizes=\\\"1vw\\\"></source><img src=\\\"/sites/default/files/styles/16_9_100/public/2021-04/Figure1.png?itok=KZtmwoYl\\\" alt=\\\"Figure 1\\\" typeof=\\\"foaf:Image\\\" /></picture></div><br />\\n<br />\\n<br />\\n<br />\\n        <div class=\\\"inverted fs-3 p-abslt m0 w-a copyright ff-sec\\\">@ Nehs Digital - Jeremy Clech</div><br />\\n    <br />\\n  </article><p> </p><br />\\n<p><span><span>The second phase focuses on the extraction and organization of concepts. We will rely on the SNOMED-CT ontology, the reference for medical terms. This extraction of the concepts and their logical organization of SNOMED-CT will lead to a comparison of the concepts connected together by the SNOMED-CT references and consolidated by the guides of the good practices formalized in the same way. This may result in a search engine for concepts that can search for similar reports. We will define KPIs to evaluate the normalization of the report based on the involved concepts.</span></span></p><br />\\n<article data-quickedit-entity-id=\\\"media/172\\\" class=\\\"align-center media w12 p-rltv\\\"><div class=\\\"l-r-i\\\"><br />\\n\\t\\t\\t<picture><source srcset=\\\"/sites/default/files/styles/16_9_100/public/2021-04/Figure%202.png?itok=BVnPhbaH 100w, /sites/default/files/styles/16_9_300/public/2021-04/Figure%202.png?itok=vqjm4skN 300w, /sites/default/files/styles/16_9_600/public/2021-04/Figure%202.png?itok=LF-vo6wR 600w, /sites/default/files/styles/16_9_1200/public/2021-04/Figure%202.png?itok=_RUdHIH4 1200w, /sites/default/files/styles/16_9_1600/public/2021-04/Figure%202.png?itok=EPNEjQlX 1600w, /sites/default/files/styles/16_9_2400/public/2021-04/Figure%202.png?itok=WyxGx4-j 2400w\\\" media=\\\"(min-width: 1px)\\\" type=\\\"image/png\\\" sizes=\\\"1vw\\\" data-originial-sizes=\\\"1vw\\\"></source><img src=\\\"/sites/default/files/styles/16_9_100/public/2021-04/Figure%202.png?itok=BVnPhbaH\\\" alt=\\\"Figure 2\\\" typeof=\\\"foaf:Image\\\" /></picture></div><br />\\n<br />\\n<br />\\n<br />\\n        <div class=\\\"inverted fs-3 p-abslt m0 w-a copyright ff-sec\\\">@ Nehs Digital - Jeremy Clech</div><br />\\n    <br />\\n  </article><p><span><span><strong>Cooperation of the partners</strong></span></span></p><br />\\n<p><span><span>The pilot has a running collaboration with ORA in order to be able to share this large dataset. This unusual weight (more than 4 terabytes) imply to define dedicated resources.</span></span></p><br />\\n<p><span><span>Another collaboration is taking place with BSC to define a common way to exploit their resources for learning from this large dataset.</span></span></p><br />\\n<p><span><span>The main collaboration is however with UPM, which contribute to the analyzing of the text reports and concept extractions. They realized a prototype and the next phase will consist to integrate the text reports from the collected dataset.</span></span></p><br />\\n<p><span><span></span></span></p><br />\\n<p><span><span><strong>Exploitation of the AI4EU Platform</strong></span></span></p><br />\\n<p><span><span>We distinguish three modes of exploitation that were highly relevant for the AI4Healthcare pilot: </span></span></p><br />\\n<ol><li><span><span> <u>Usage of the Community services</u></span></span></li><br />\\n</ol><p><span><span><span lang=\\\"EN-GB\\\" xml:lang=\\\"EN-GB\\\" xml:lang=\\\"EN-GB\\\">The Q/A online sessions related to the exploitation of the covid-19 dataset gave us access to competences in AI which were useful to understand how to process the data. By opening a discussion group for the covid-19 dataset, we also noted a very large interest from the AI4EU community.</span></span></span></p><br />\\n<ol start=\\\"2\\\"><li><span><span> <u>Publication of resources in the AI4EU Catalogue </u></span></span></li><br />\\n</ol><p><span><span><span lang=\\\"EN-GB\\\" xml:lang=\\\"EN-GB\\\" xml:lang=\\\"EN-GB\\\">Two components were published in the AI4EU Resource Catalogue, namely the covid-19 dataset and a docker containing the text report analysis.</span></span></span></p><br />\\n<p><span><span></span></span></p><br />\\n<p><span><span></span></span></p><br />\\n<p><span><span></span></span></p><br />\\n<p><span><span><strong>Major achievements</strong></span></span></p><br />\\n<p><span><span>At this stage of the pilot, 3 major steps are carried out:</span></span></p><br />\\n<ol><li><span><span> Defining the legal context of the data collection. Since the dataset concerns sensible medical data, a clear anonymization procedure needs to be defined. It has been complicated due to the nature of the data: medical images contain metadata. Today, verification tools to double check the anonymization are being finalized.</span></span></li><br />\\n<li><span><span> Regarding the collection itself, we collected one 400,000 CT slices of scans in dicom format. The quality of these images is better than PNG images proposed by the reference Chinese dataset<a href=\\\"#_ftn1\\\" title=\\\"\\\" rel=\\\"nofollow\\\"><span><span><span><span><span></span></span></span></span></span></a>.</span></span></li><br />\\n<li><span><span> A prototype of concept extraction has been realized. It has been based on the Ecgen-radiology and MIMIC-CXR datasets in the system design. It proposes a case-base recommender where new recommendations are based on previous similar cases. Among others, the system is capable of: </span></span></li><br />\\n</ol><ul><li><span><span>Selecting similar cases based on radiology images and reports (Deep Learning Computer Vision and NLP methods are employed).</span></span></li><br />\\n<li><span><span>Rearranging the report in sections automatically (a Deep Learning NLP text classification system is used for this).</span></span></li><br />\\n<li><span><span>Suggesting missing medical concepts from the report based on similar cases retrieved (a Deep Learning NLP NER system powers this functionality). </span></span></li><br />\\n<li><span><span>Validating automatically the reports based on previously rejected cases (a Deep Learning classifiers is constantly retrained based on manually validated and rejected cases).</span></span><br />\\n<p>\\tThe concrete assets related to the AI4Healthcare pilot are available in the AI Catalog of the platform under the following references:<br /><br />\\n\\t- <a href=\\\"https://www.ai4europe.eu/research/ai-catalog/raidologist\\\" title=\\\"Raidologist\\\" rel=\\\"nofollow\\\">https://www.ai4europe.eu/research/ai-catalog/raidologist</a><br /><br />\\n\\t- <a href=\\\"https://www.ai4europe.eu/research/ai-catalog/cvd-dataset\\\" title=\\\"CVD Dataset Sample\\\" rel=\\\"nofollow\\\">https://www.ai4europe.eu/research/ai-catalog/cvd-dataset</a></p></li><br />\\n</ul><p><span><span></span></span></p><br />\\n<p><span><span></span></span></p><br />\\n<hr /><p><span><span><a href=\\\"#_ftnref1\\\" title=\\\"\\\" rel=\\\"nofollow\\\"><span><span><span lang=\\\"EN-GB\\\" xml:lang=\\\"EN-GB\\\" xml:lang=\\\"EN-GB\\\"><span><span><span lang=\\\"EN-GB\\\" xml:lang=\\\"EN-GB\\\" xml:lang=\\\"EN-GB\\\">[1]</span></span></span></span></span></span></a><span lang=\\\"EN-GB\\\" xml:lang=\\\"EN-GB\\\" xml:lang=\\\"EN-GB\\\"> « Curetis Group Company Ares Genetics and BGI Group Collaborate to Offer Next-Generation Sequencing and PCR-based Coronavirus (2019-nCoV) Testing in Europe », GlobeNewswire News Room, </span><a href=\\\"https://www.globenewswire.com/news-release/2020/01/30/1977226/0/en/Curetis-Group-Company-Ares-Genetics-and-BGI-Group-Collaborate-to-Offer-Next-Generation-Sequencing-and-PCR-based-Coronavirus-2019-nCoV-Testing-in-Europe.html\\\" title=\\\"https://www.globenewswire.com/news-release/2020/01/30/1977226/0/en/Curetis-Group-Company-Ares-Genetics-and-BGI-Group-Collaborate-to-Offer-Next-Generation-Sequencing-and-PCR-based-Coronavirus-2019-nCoV-Testing-in-Europe.html\\\" rel=\\\"nofollow\\\"><span><span>https://www.globenewswire.com/news-release/2020/01/30/1977226/0/en/Curetis-Group-Company-Ares-Genetics-and-BGI-Group-Collaborate-to-Offer-Next-Generation-Sequencing-and-PCR-based-Coronavirus-2019-nCoV-Testing-in-Europe.html</span></span></a><span lang=\\\"EN-GB\\\" xml:lang=\\\"EN-GB\\\" xml:lang=\\\"EN-GB\\\"></span></span></span></p><br />\\n<p><span><span><a href=\\\"#_ftnref2\\\" title=\\\"\\\" rel=\\\"nofollow\\\"><span><span><span lang=\\\"EN-GB\\\" xml:lang=\\\"EN-GB\\\" xml:lang=\\\"EN-GB\\\"><span><span><span lang=\\\"EN-GB\\\" xml:lang=\\\"EN-GB\\\" xml:lang=\\\"EN-GB\\\">[2]</span></span></span></span></span></span></a><span lang=\\\"FR\\\" xml:lang=\\\"FR\\\" xml:lang=\\\"FR\\\"> Ai T, Yang Z, Hou H et al. </span><span lang=\\\"EN-GB\\\" xml:lang=\\\"EN-GB\\\" xml:lang=\\\"EN-GB\\\">Correlation of Chest CT and RT-PCR Testing in Coronavirus Disease 2019 (COVID-19) in China: A Report of 1014 Cases. Radiology. 2020;200642</span></span></span></p><br />\\n<p><span><span><a href=\\\"#_ftnref3\\\" title=\\\"\\\" rel=\\\"nofollow\\\"><span><span><span lang=\\\"EN-GB\\\" xml:lang=\\\"EN-GB\\\" xml:lang=\\\"EN-GB\\\"><span><span><span lang=\\\"EN-GB\\\" xml:lang=\\\"EN-GB\\\" xml:lang=\\\"EN-GB\\\">[3]</span></span></span></span></span></span></a><span> Bai HX, Hsieh B, Xiong Z <em>et al</em>. </span><span lang=\\\"EN-GB\\\" xml:lang=\\\"EN-GB\\\" xml:lang=\\\"EN-GB\\\">Performance of radiologists in differentiating COVID-19 from viral pneumonia on chest CT. Radiology. 2020 Mar 10:200823</span></span></span></p><br />\\n<p><span><span><a href=\\\"#_ftnref4\\\" title=\\\"\\\" rel=\\\"nofollow\\\"><span><span><span lang=\\\"EN-GB\\\" xml:lang=\\\"EN-GB\\\" xml:lang=\\\"EN-GB\\\"><span><span><span lang=\\\"EN-GB\\\" xml:lang=\\\"EN-GB\\\" xml:lang=\\\"EN-GB\\\">[4]</span></span></span></span></span></span></a><span lang=\\\"EN-GB\\\" xml:lang=\\\"EN-GB\\\" xml:lang=\\\"EN-GB\\\"> Wu J, Wu X, Zeng W, Guo D, Fang Z, Chen L, Huang H, Li C. Chest CT Findings in Patients with Corona Virus Disease 2019 and its Relationship with Clinical Features. Invest Radiol. 2020 Feb 21. doi: 10.1097/RLI.0000000000000670</span></span></span></p><br />\\n<p><span><span><a href=\\\"#_ftnref5\\\" title=\\\"\\\" rel=\\\"nofollow\\\"><span><span><span lang=\\\"EN-GB\\\" xml:lang=\\\"EN-GB\\\" xml:lang=\\\"EN-GB\\\"><span><span><span lang=\\\"EN-GB\\\" xml:lang=\\\"EN-GB\\\" xml:lang=\\\"EN-GB\\\">[5]</span></span></span></span></span></span></a><span lang=\\\"EN-GB\\\" xml:lang=\\\"EN-GB\\\" xml:lang=\\\"EN-GB\\\"> Zhao W, Zhong Z, Xie X, Yu Q, Liu J. Relation Between Chest CT Findings and Clinical Conditions of Coronavirus Disease (COVID-19) Pneumonia: A Multicenter Study. AJR Am J Roentgenol. 2020 Mar 3:1-6. doi: 10.2214/AJR.20.22976</span></span></span></p><br />\\n<p><span><span><a href=\\\"#_ftnref6\\\" title=\\\"\\\" rel=\\\"nofollow\\\"><span><span><span lang=\\\"EN-GB\\\" xml:lang=\\\"EN-GB\\\" xml:lang=\\\"EN-GB\\\"><span><span><span lang=\\\"EN-GB\\\" xml:lang=\\\"EN-GB\\\" xml:lang=\\\"EN-GB\\\">[6]</span></span></span></span></span></span></a><span lang=\\\"EN-GB\\\" xml:lang=\\\"EN-GB\\\" xml:lang=\\\"EN-GB\\\"> Song F, Shi N, Shan F, Zhang Z, Shen J, Lu H, Ling Y, Jiang Y, Shi Y. Emerging Coronavirus 2019-nCoV Pneumonia. Radiology. 2020 Feb 6:200274</span></span></span></p><br />\\n<p><span><span><a href=\\\"#_ftnref7\\\" title=\\\"\\\" rel=\\\"nofollow\\\"><span><span><span lang=\\\"EN-GB\\\" xml:lang=\\\"EN-GB\\\" xml:lang=\\\"EN-GB\\\"><span><span><span lang=\\\"EN-GB\\\" xml:lang=\\\"EN-GB\\\" xml:lang=\\\"EN-GB\\\">[7]</span></span></span></span></span></span></a><span lang=\\\"EN-GB\\\" xml:lang=\\\"EN-GB\\\" xml:lang=\\\"EN-GB\\\"> Tao Ai, Zhenlu Yang, Hongyan Hou, Chenao Zhan, Chong Chen, Wenzhi Lv, Qian Tao, Ziyong Sun, Liming Xia. Correlation of Chest CT and RT-PCR Testing in Coronavirus Disease 2019 (COVID-19) in China: A Report of 1014 Cases. </span><span>Radiology, 2020; 200642 DOI: 10.1148/radiol.2020200642</span></span></span></p><br />\\n<p><span><span><a href=\\\"#_ftnref8\\\" title=\\\"\\\" rel=\\\"nofollow\\\"><span><span><span lang=\\\"EN-GB\\\" xml:lang=\\\"EN-GB\\\" xml:lang=\\\"EN-GB\\\"><span><span><span lang=\\\"EN-GB\\\" xml:lang=\\\"EN-GB\\\" xml:lang=\\\"EN-GB\\\">[8]</span></span></span></span></span></span></a><span> Lin Li, Lixin Qin, Zeguo Xu et al. </span><span lang=\\\"EN-GB\\\" xml:lang=\\\"EN-GB\\\" xml:lang=\\\"EN-GB\\\">Artificial Intelligence Distinguishes COVID-19 from Community Acquired Pneumonia on Chest CT. </span><span>Radiology, published online 2020 Mar 19, </span><a href=\\\"https://doi.org/10.1148/radiol.2020200905\\\" title=\\\"https://doi.org/10.1148/radiol.2020200905\\\" rel=\\\"nofollow\\\"><span lang=\\\"EN-US\\\" xml:lang=\\\"EN-US\\\" xml:lang=\\\"EN-US\\\"><span><span>https://doi.org/10.1148/radiol.2020200905</span></span></span></a></span></span></p><br />\\n<p><span><span><a href=\\\"#_ftnref9\\\" title=\\\"\\\" rel=\\\"nofollow\\\"><span><span><span lang=\\\"EN-GB\\\" xml:lang=\\\"EN-GB\\\" xml:lang=\\\"EN-GB\\\"><span><span><span lang=\\\"EN-GB\\\" xml:lang=\\\"EN-GB\\\" xml:lang=\\\"EN-GB\\\">[9]</span></span></span></span></span></span></a><span lang=\\\"EN-GB\\\" xml:lang=\\\"EN-GB\\\" xml:lang=\\\"EN-GB\\\"> Infervision, </span><a href=\\\"https://global.infervision.com/\\\" title=\\\"https://global.infervision.com/\\\" rel=\\\"nofollow\\\"><span><span><span>HTTPS://global.infervision.com/</span></span></span></a><span lang=\\\"EN-GB\\\" xml:lang=\\\"EN-GB\\\" xml:lang=\\\"EN-GB\\\"></span></span></span></p><br />\\n<p><span><span><a href=\\\"#_ftnref10\\\" title=\\\"\\\" rel=\\\"nofollow\\\"><span><span><span lang=\\\"EN-GB\\\" xml:lang=\\\"EN-GB\\\" xml:lang=\\\"EN-GB\\\"><span><span><span lang=\\\"EN-GB\\\" xml:lang=\\\"EN-GB\\\" xml:lang=\\\"EN-GB\\\">[10]</span></span></span></span></span></span></a><span lang=\\\"IT\\\" xml:lang=\\\"IT\\\" xml:lang=\\\"IT\\\"> Alessandro Sa</span><span lang=\\\"EN-GB\\\" xml:lang=\\\"EN-GB\\\" xml:lang=\\\"EN-GB\\\">ﬃ</span><span lang=\\\"IT\\\" xml:lang=\\\"IT\\\" xml:lang=\\\"IT\\\">otti, Salvo Rinzivillo, Florian Zimmermann, Alberto Sanfeliu, Michele Lombardi5, João Costeira, and Luciano Sera</span><span lang=\\\"EN-GB\\\" xml:lang=\\\"EN-GB\\\" xml:lang=\\\"EN-GB\\\">ﬁ</span><span lang=\\\"IT\\\" xml:lang=\\\"IT\\\" xml:lang=\\\"IT\\\">ni, AI4EU Deliverable D7.1, Outcomes from the Strategic Orientation Workshop. </span><span lang=\\\"EN-GB\\\" xml:lang=\\\"EN-GB\\\" xml:lang=\\\"EN-GB\\\">Milton-Keynes, United Kingdom, 2019 Sept 19-20</span></span></span></p>\",",
  "publisher": "??",
  "website": "http://",
  "keywords": [],
  "mediaurls": [
    "https://www.ai4europe.eu/sites/default/files/styles/16_9_100/public/2021-06/Banner-AI4EU-call-for-solutions_4.4.png"
  ],
  "industry_sectors_ids": [
    2
  ],
  "application_areas_ids": [
    9
  ],
  "research_areas_ids": [
    1
  ],
  "dateModified": {
    "$date": "2023-06-19T18:27:21.667Z"
  },
  "datePublished": {
    "$date": "2023-06-19T18:26:50.351Z"
  }
},
{
  "_id": {
    "$oid": "64919c3d823f480d2968833d"
  },
  "identifier": 4,
  "title": "AI4Robotics",
  "summary": "The AI4Robotics pilot experiment aims at demonstrating that the AI4EU Experiment function can be exploited in industrial robotics for testing robot's wear.",
  "description": "Pilot description\nThe pilot consists of two different setups: 1) one setup is related to measuring wearing of the wrist on robots, and 2) another setup is related to measuring wearing of paint pumps used in relation to robotized painting. In both setups, one or more vibration sensors are attached to strategic places and vibration data is measured. The measured values from the vibration sensors are then uploaded on the AI4EU platform. Both setups are set up to run in a 24/7 interval time and will continuously upload vibration data on the platform. There will also be uploaded metadata such as measurement of play in gears, leakage in pumps, service intervals and maintenance logs. Based on the vibration data and the metadata, the goal of the pilot experiment is to develop predictive maintenance models which can estimate when running maintenance service is needed, and what kind of maintenance.\n\n\n\n\n\n  AI4EU platform exploitation\nThe pilot is planned to be integrated with the features of the AI4EU platform that are dedicated to AI models, that is, the resources catalog and AI4EU Experiments.\nCooperation of the organisations\nABB Robotics, as the industrial partner of the pilot, builds and operates the experimental robot platform at its premises in Bryne, Norway. Simula Research Laboratory (SRL) is charged of creating the central infrastructure allowing data sharing with the other research partners and allowing technical collaboration. This central infrastructure for data sharing and computational experiments has been set up (see description below).\nOutside the partner of the pilot, there is an ongoing collaboration with Aristotle University of Thessaloniki that applies Explainable AI techniques on predictive maintenance models.\nTraining\nCurrently, the AI4Robotics pilot uses a private workspace on the Teralab platform[1], that is available to all partners in the pilot. The workspace is set up for automated data collection from the experimental platform at ABB Robotics and allows the research partners to access and inspect this data, as well as to run experiments and develop the predictive maintenance model.\nOnce the AI4EU Experiments subsystem with the Design Studio is available, our goal is to utilize this functionality to model the training pipeline using our own data storage and model architecture.\n\n\n\n\n\nTimeline and achievements\nThe AI4EU Experiments subsystem is central to the modeling and deployment strategy for the AI4Robotics pilot.\nWe consider three deployment scenarios for the final predictive maintenance model. First, the model is deployed directly on the robot, respectively its controller unit. In this case the model is dedicated to a single robot unit, which is useful if only a single robot of this type is deployed or the response time for the model is critical. Second, the model is deployed centrally on-site and can be used with multiple robots, which is useful in an industrial manufacturing setting, e.g. production lanes. Third, the model is deployed in a cloud environment and can be used with multiple robots at different locations, which can be useful in case of multiple production locations or if the predictive maintenance is offered as a central service to multiple customers. Which deployment scenario is chosen is depending on the business case and the actual use case, but all of the scenarios can be realized with the AI4EU Experiments subsystem.\n\n\n\n\n    \n  To achieve this flexibility, we bundle the trained predictive maintenance model as a dockerized model with a protobuf interface. This model can then be onboarded on the AI4EU Experiments from where deployment options to both public cloud providers, e.g. Microsoft Azure, and a local cloud with Kubernetes are available.\nIt is also planned to publish the collected data set and the final predictive maintenance models in the AI4EU resources catalog, once the data collection and model development is completed.\n ",
  "publisher": "ABB Robotics",
  "website": "https://new.abb.com/products/robotics",
  "keywords": [],
  "mediaurls": [
    "https://www.ai4europe.eu/sites/default/files/styles/16_9_100/public/2021-07/AI4Media%201st%20Open%20call_Linlkedin.png"
  ],
  "papers_ids": [],
  "datasets_ids": [
    6,
    8
  ],
  "industry_sectors_ids": [
    8,
    13
  ],
  "application_areas_ids": [
    7
  ],
  "research_areas_ids": [
    16
  ],
  "dateModified": {
    "$date": "2023-06-21T10:53:09.767Z"
  },
  "datePublished": {
    "$date": "2023-06-20T14:31:57.235Z"
  },
  "publications_ids": [
    3,
    5
  ]
},
{
  "_id": {
    "$oid": "6491a4ee823f480d2968833e"
  },
  "identifier": 5,
  "title": "AI4Media",
  "summary": "The creation of video content in many languages, with local vocal and face expressions, is a costly process. To get an optimal result, one must reshoot each targeted language. Thanks to AI, it is possible to create many translations from a single shot. Interdigital R&D and Inria combined their knowledge to create a first system able to create a 3D face animation from audio and video. The identity of the actor is automatically extracted from a single video to create a 3D face identity. The animation of the lips is automatically extracted from audio to animate the lips of the 3D face.",
  "description": "<p><span><span>Media content is much more enjoyable when actors talk in viewers' native language. It includes speaking as well as natural expressions, especially facial expressions. To get such results, big brands must shoot and produce each content locally. It leads to very expensive production campaigns. </span></span></p><br />\\n<p><span><span></span></span></p><br />\\n<p><span><span>A solution to reduce costs is to shoot in one language and seamlessly repurpose to many countries. Thanks to usual tools in media industry called \\\"face rigs\\\", artists can model a 3D face of any actor, and edit or transfer facial expressions from one actor to another. For instance, an actor can be shot for each language in a studio, where only its face is shot. Then, its facial expression can be applied to the actor of the main footage. For instance, a popular actor like Tom Cruise speaks in English in the main footage, and an Italian actor can speak in its native language in front of a camera. Then the lips and facial expressions of the Italian actor can be applied to a digital Tom Cruise. The result is Tom Cruise speaking Italian in a very natural way.</span></span></p><br />\\n<figure role=\\\"group\\\" class=\\\"align-center\\\"><article data-quickedit-entity-id=\\\"media/174\\\" class=\\\"media w12 p-rltv\\\"><div class=\\\"l-r-i\\\"><br />\\n\\t\\t\\t<picture><source srcset=\\\"/sites/default/files/styles/free_100/public/2021-04/Figure%201.png?itok=CYoo2_ow 100w, /sites/default/files/styles/free_300/public/2021-04/Figure%201.png?itok=EHwcoUDH 300w, /sites/default/files/styles/free_600/public/2021-04/Figure%201.png?itok=wNO8bZkG 600w, /sites/default/files/styles/free_1200/public/2021-04/Figure%201.png?itok=CXZxD_m0 1200w, /sites/default/files/styles/free_2400/public/2021-04/Figure%201.png?itok=bq-R_Yge 1285w\\\" media=\\\"(min-width: 1px)\\\" type=\\\"image/png\\\" sizes=\\\"1vw\\\" data-originial-sizes=\\\"1vw\\\"></source><img src=\\\"/sites/default/files/styles/free_100/public/2021-04/Figure%201.png?itok=CYoo2_ow\\\" alt=\\\"Figure 1\\\" typeof=\\\"foaf:Image\\\" /></picture></div><br />\\n<br />\\n<br />\\n<br />\\n        <div class=\\\"inverted fs-3 p-abslt m0 w-a copyright ff-sec\\\">@ Interdigital - Philippe Henri Gosselin</div><br />\\n    <br />\\n  </article><figcaption>Figure 1: AI4Media Workflow</figcaption></figure><p> </p><br />\\n<p><span><span>Current solutions to get such a result call from support from many different artists who manually capture facial expressions from one actor and apply them to another one. This process is extremely time-consuming: to capture 2 to 3 seconds of facial expression, 5 human days are required on average. Although it reduces the overall cost, it remains very expensive.</span></span></p><br />\\n<p><span><span></span></span></p><br />\\n<p><span><span>Thanks to the power of current AI tools, we can automate as much as possible the processes involved in this workflow. Considering the face identity and expressions, Interdigital R&amp;D is able to automatically compute the face rig parameters from a single video. For instance, the main footage can be used to create a 3D face model of the main actors. Similarly, the footage for each language can be used to get the face animation parameters. Considering the voice, Inria is able to automatically compute the mouth and lips parameters from an audio file. It can be the speaking of the actual dubbing actor or an audio speech synthesized from a text file. By the end, all parameters are combined (identity, face expressions and lips movements) to create a realistic dubbed face animation.</span></span></p><br />\\n<p><span><span></span></span></p><br />\\n<p><span><span>Last but not least, the overall workflow respects the industry standards. It means that artists keep full control over the end result and edit/intervene at all steps the output of the capture and synthesis tools. For instance, artists could like to change a bit the expressions of dubbing actors to better fit the context of the main scene. This kind of update is likely to happen since the dubbing actors are performing alone in front of a camera, and could not be aware of all details on the main stage.</span></span></p><br />\\n<p><span><span></span></span></p><br />\\n<p><span><span><strong>Cooperation with the partners of the pilot</strong></span></span></p><br />\\n<p><span><span></span></span></p><br />\\n<p><span><span>Collaboration between Inria Nancy and Interdigital R&amp;D France started in February 2019. Several meetings helped in the understanding of all involved technologies. Starting summer 2019, data exchanges allowed first experiments to animate face rigs from Interdigital using blendshapes computed by Inria. It resulted in a first processing in January 2020 that allows the animation of the lips of a face captured from a monocular video. To get this result, the 3D face rig is automatically extracted from a video (see Fig.2). In the meantime, lips blendshapes are computed from an audio speech (recorded or synthetized) (see Fig.3). Finally, the face rig is animated using the blendshapes, which leads to an actor reciting a text he has never spoken. </span></span></p><br />\\n<p><span><span></span></span></p><br />\\n<p><span><span>In April 2020, these preliminary results were further improved to animate the whole head. In the case, the face pose and expressions are captured from one video (not necessarily the one used to compute the face rig), and used to animate the face. The lips are still according to the chosen audio speech.</span></span></p><br />\\n<figure role=\\\"group\\\" class=\\\"align-center\\\"><article data-quickedit-entity-id=\\\"media/176\\\" class=\\\"media w12 p-rltv\\\"><div class=\\\"l-r-i\\\"><br />\\n\\t\\t\\t<picture><source srcset=\\\"/sites/default/files/styles/free_100/public/2021-04/Figure%202b.png?itok=DnfoQgTH 100w, /sites/default/files/styles/free_300/public/2021-04/Figure%202b.png?itok=vo4GQtjS 300w, /sites/default/files/styles/free_600/public/2021-04/Figure%202b.png?itok=1lly1XVq 600w, /sites/default/files/styles/free_2400/public/2021-04/Figure%202b.png?itok=NL9QkHrS 1046w\\\" media=\\\"(min-width: 1px)\\\" type=\\\"image/png\\\" sizes=\\\"1vw\\\" data-originial-sizes=\\\"1vw\\\"></source><img src=\\\"/sites/default/files/styles/free_100/public/2021-04/Figure%202b.png?itok=DnfoQgTH\\\" alt=\\\"Figure 2b\\\" typeof=\\\"foaf:Image\\\" /></picture></div><br />\\n<br />\\n<br />\\n<br />\\n        <div class=\\\"inverted fs-3 p-abslt m0 w-a copyright ff-sec\\\">@ Interdigital - Philippe Henri Gosselin</div><br />\\n    <br />\\n  </article><figcaption>Figure 2: Automatic 3D face rig extraction using Interdigital Facelab technology</figcaption></figure><p> </p><br />\\n<figure role=\\\"group\\\" class=\\\"align-center\\\"><article data-quickedit-entity-id=\\\"media/177\\\" class=\\\"media w12 p-rltv\\\"><div class=\\\"l-r-i\\\"><br />\\n\\t\\t\\t<picture><source srcset=\\\"/sites/default/files/styles/free_100/public/2021-04/Figure%203.png?itok=l1dRCgfy 100w, /sites/default/files/styles/free_300/public/2021-04/Figure%203.png?itok=W0BPFJrI 300w, /sites/default/files/styles/free_600/public/2021-04/Figure%203.png?itok=sFpvb6Fu 600w, /sites/default/files/styles/free_2400/public/2021-04/Figure%203.png?itok=EKhO9qfa 1151w\\\" media=\\\"(min-width: 1px)\\\" type=\\\"image/png\\\" sizes=\\\"1vw\\\" data-originial-sizes=\\\"1vw\\\"></source><img src=\\\"/sites/default/files/styles/free_100/public/2021-04/Figure%203.png?itok=l1dRCgfy\\\" alt=\\\"Figure 3\\\" typeof=\\\"foaf:Image\\\" /></picture></div><br />\\n<br />\\n<br />\\n<br />\\n        <div class=\\\"inverted fs-3 p-abslt m0 w-a copyright ff-sec\\\">@ Interdigital - Philippe Henri Gosselin</div><br />\\n    <br />\\n  </article><figcaption><br /><br />\\nFigure 3: Inria Nancy technology lips blenshapes extraction</figcaption></figure><p> </p><br />\\n<p> </p><br />\\n<p><span><span><strong>Exploitation of the AI4EU platform</strong></span></span></p><br />\\n<p><span><span></span></span></p><br />\\n<ol><li><span><span> <u>Collection of User Requirements</u></span></span></li><br />\\n</ol><p><span><span>We have collected and discussed user requirements on the AI4EU platform and confirmed their existence or potential realization with WP3. It includes the hardware and software specifications, like the use of GPU units and Deep Learning frameworks.</span></span></p><br />\\n<p><span><span></span></span></p><br />\\n<ol start=\\\"2\\\"><li><span><span> <u>Contribution to the AI4EU Resource Catalogue</u></span></span></li><br />\\n</ol><p><span><span>UPM submitted a demonstration software in the AI4EU Resource catalogue<a href=\\\"https://www.ai4eu.eu/resource/ai4eu-media-pilot\\\" rel=\\\"nofollow\\\"><span></span></a>. The code is compiled inside a Docker to easily download it and test it with your own videos. The algorithm takes as input a normal video (a video of you for example) and another video where the facial expression is translated (Politician, Famous Person or other video faces). The output provides the translation of the input face facial expression to the second video. The Docker work in CPU or GPU if is available. Finally, a fine-tuning process should be performed to adapt properly the input faces.</span></span></p><br />\\n<p><span><span></span></span></p><br />\\n<ol start=\\\"3\\\"><li><span><span> <u>Adoption of the AI4EU Experiments Service</u></span></span></li><br />\\n</ol><p><span><span>The AI4Media pilot uses a private workspace on the Teralab platform, which is available to all partners in the pilot. The workspace is used for data sharing between partners, and for computations of intermediate data and final results.</span></span></p><br />\\n<p><span><span></span></span></p><br />\\n<p><span><span><strong>Ethical assessment of the pilot</strong></span></span></p><br />\\n<p><span><span>Interdigital and Inria, with the support of WP5 partners and SRL, have participated to the ethical assessment of the pilot. We have provided a detailed description of the technical properties of the main workflow of the pilot and have reported on ethical risks related to undesired usages of the technology. </span></span></p><br />\\n<p><span><span></span></span></p><br />\\n<p><span><span><strong>Next steps</strong></span></span></p><br />\\n<p><span><span>The AI4Media team is currently working on the production of better results, specifically the creation of a better rendering. It will be thanks to the expertise of the Polytechnic University of Madrid (UPM) in this scope. We also plan to process more realistic videos, like TV news. An evaluation campaign is also in preparation to helps in the benchmarking of the solutions.</span></span></p><br />\\n<p> </p>",
  "publisher": "???",
  "website": "https://thenextweb.com/neural/2020/02/13/this-ai-can-perfectly-dub-videos-in-indic-languages-and-correct-lip-syncing/",
  "keywords": [],
  "mediaurls": [
    "https://www.ai4europe.eu/sites/default/files/styles/16_9_100/public/2021-07/SSW11__v%C3%A9g_Hungary_26-28.jpg"
  ],
  "papers_ids": [],
  "datasets_ids": [],
  "industry_sectors_ids": [
    5
  ],
  "application_areas_ids": [
    7
  ],
  "research_areas_ids": [
    1,
    0
  ],
  "dateModified": {
    "$date": "2023-06-20T15:09:02.335Z"
  },
  "datePublished": {
    "$date": "2023-06-20T15:09:02.335Z"
  }
},
{
  "_id": {
    "$oid": "6491a5c0823f480d2968833f"
  },
  "identifier": 6,
  "title": "AI4Citizen",
  "summary": "The School-Work Alternation (SWA) programme  fostered by the European Commission calls for reinforcing the partnership between educational institutions and the job market (Figure 2.1.1). The AI4Citizen pilot, a novel software pilot developed in the realm of the H2020 AI4EU project, has been conceived to support a real-world SWA programme. AI4Citizen provides AI tools to help automate the current process implemented by the studied SWA programme; along with further AI tools to enable a novel process that supports the allocation of teams of students to internships, and therefore facilitate team-based learning and the acquisition of teamwork skills. Interestingly, from an applied AI perspective, the AI4Citizen pilots results from pipelining a variety of AI technologies. Thanks to our exhaustive empirical analysis, we observe that the AI4Citizen pilot is ready for deployment in a real-world setting.",
  "description": "General Presentation\nThe School-Work Alternation (SWA) programme[1] fostered by the European Commission calls for reinforcing the partnership between educational institutions and the job market (Figure 2.1.1). The AI4Citizen pilot, a novel software pilot developed in the realm of the H2020 AI4EU project, has been conceived to support a real-world SWA programme. AI4Citizen provides AI tools to help automate the current process implemented by the studied SWA programme; along with further AI tools to enable a novel process that supports the allocation of teams of students to internships, and therefore facilitate team-based learning and the acquisition of teamwork skills. Interestingly, from an applied AI perspective, the AI4Citizen pilots results from pipelining a variety of AI technologies. Thanks to our exhaustive empirical analysis, we observe that the AI4Citizen pilot is ready for deployment in a real-world setting.  ​​​​​         \n \n\n\n\\t\\t\\t\n\n\n\n\n  Figure 2.1.1: The School Work Alternation Program\n\nInnovation is not only about delivering the best algorithm but to use information technology to facilitate people life. During the project we followed a Design Thinking led development process according to SAP best practices to elicitate users requirements and to gather users feedbacks.\n\nAI4Citizen provides AI tools to help automate the current process implemented by the SWA programme; along with further AI tools to enable a novel process that supports the allocation of teams of students to internships, and therefore facilitate team-based learning and the acquisition of teamwork skills. Following our DT work, the scenario to be implemented is:\n\nA news published on the school billboard informed all students that it is time to think about their SWA, and that diﬀerent social media channels (e.g. Facebook, Twitter) can be used by students to search and enroll in an internship. These channels are connected with the internship oﬀers proposed by companies, universities, research institutes, but also - in a secure way - to the SWA-FBK system, which means that it can access all the known information about each student in the school (e.g. competences, previous internship experiences) and past year statistics and testimonials. During her quest, Ludovica connects to the chatbot, using the SWA-FBK credentials, and initiates a discussion session with the general chatbot. The general chatbot discerns where Ludovica’s interests lie, ﬁrst using the information already memorized in the SWA-FBK system, but also asking Ludovica some more information (e.g. when she would like to do the internship; where she would prefer to do it – close to the school, close to her home; if she would like to do it with some friends). The chatbot answers the most common questions related to the process and redirects the family’s friend question to Arnoldo, who only receives a fraction of the questions and thus can answer in due time. He also manages to dedicate one hour to all students to talk about their desiderata and expectations and the discussion with Ludovica was really fruitful, showing a real desire to accomplish her ﬁrst choice. The chatbot then proposes several internship programs that lie in its ﬁeld and gathers Ludovica’s interests and preferences over them. These preferences are passed to the team formation algorithm to be used in this process. After a couple of hours, Arnoldo received the assignment provided by the algorithm that shows the score of the overall assignment and the individual team ﬁt. Remembering the discussion with Ludovica, he suggests the algorithm to consider her ﬁrst choice, however the results show that this constraint decreased the global assignment score and the ﬁt of ﬁve teams including Ludovica’s one. Arnoldo decides therefore to follow the ﬁrst recommendation and eventually explain to Ludovica the rationales behind the assignment to her second choice.\n\n\nInterestingly, from an applied AI perspective, the AI4Citizen pilots results from pipelining a variety of AI technologies: (1) NLP algorithms for extracting competences and skills oﬀered by students in their curricula and requested by companies in their internship oﬀers, and for, later on, matching them; (2) a chatbot to assist students in selecting internships; (3) a novel algorithm to group students into teams to allocate them to the internships on oﬀer.\n\nMore in detail, the development of the AI4Citizen pilot builds upon the following contributions:\nAn NLP-based tool to match students with internships.(FBK) - The essential problem here is to make the two parties speak the same language when it comes to the characterization of the skills and competences required by the companies and those owned by the candidates as the result from the activities and experiences that they have carried out during their career and/or studies. Indeed, frequently the descriptions of experiences are in free text, making it diﬃcult to match requests and oﬀers in an automated manner. To address this issue, we have deﬁned and developed a tool that aims at bridging the gap between the required and provided competences when expressed as a free text description leveraging ESCO[2] a multilingual classiﬁcation of European Skills, Competences, Qualiﬁcations and Occupations. It contains a taxonomy of 13,485 competences and 13,485 jobs, connected with relations.\nA chatbot to assist students.(SAP) - In order to develop the AI4Citizen chatbot, we used SAP Conversational AI[3] a collaborative end-to-end platform for creating chatbots. Our chatbot understand 28 diﬀerent types of student intentions related to gather information about the process but also to express and review preferences. The NLP engine recognizes the intents and triggers suitable skill to interact with the end users. These skills interact with a dedicated components interacting with the database minimizing the need to exchange personal information outside the FBK perimeter.\nA novel heuristic algorithm to match teams of students with internships (IIIA-CSIC) - Our proposed algorithm initially ﬁnds an eﬃcient and feasible allocation by exploiting the distribution of students’ capabilities over the internship requirements; and then iteratively improves the initial allocation by swapping members among working teams. As we show the initial allocation is computed in polynomial time in the number of internship and the number of students, hence improving the allocation becomes an anytime, heuristic algorithm.\nAn empirical evaluation of the chatbot usability (SAP, FBK). We performed the evaluation of the chatbot against 55 students from 3 diﬀerent classes. The main mission was to select three wishes and to further understand the internship context. The ﬁrst class was aﬀected by a default that prevented 10% of the student to achieve their task, this default was later ﬁxed. All students (e.g. 90%) that performed the mission did it in less than 30 minutes and were reasonably satisﬁed by the experience, satisfaction improved thanks to the ﬁxes but also the enrichment of vocabulary due to former interactions. Still, the main usability criticism that emerged was that the chatbot was providing too many guidelines while they should have preferred a free interaction. While this should be taken into consideration for the future, further experiment should understand the impact on the task completion and the time to complete the global mission.\n\n        Figure 2.1.2: Heuristic vs Expert vs Random. Percentage out of 29 tournaments.\n\nAn empirical evaluation of the team allocation algorithm (IIIA-CSIC). We compare our heuristic algorithm against CPLEX[4], a state-of-the-art linear programming solver, using synthetic data, and show that it outperforms CPLEX in terms of solving time. Furthermore, we use real world data from students that must be allocated to internships. Our heuristic algorithm solves the problem while CPLEX cannot generate the constraints in a reasonable amount of time. This evaluation illustrates that our heuristic algorithm solves large problem instances that CPLEX cannot handle. \n\nAn expert-driven validation of the team allocation algorithm (IIIA-CSIC, FBK). A group of experts in education conﬁrm that the allocations produced by our heuristic algorithm are better than those manually produced by experienced teachers (Figure 2.1.2).\n\nCooperation between the partners\nAll partners were involved in the ideation and design of the pilot. The collaboration of the different partners leveraged their areas of expertise:\nSAP oversaw the development of the pilot, they provided the chatbot component and business modeling capabilities; \nFBK provided its SWA know how and its field experience as the operator for the Trento region SWA system. This included the access to real – albeit obfuscated – data, but also the development of new components to facilitate the dialog with the students using data clustering methods; and access to students and teachers for the evaluation of the pilot;\nCSIC focused on the modeling of the team formation problem, which is NP-hard. A specific effort was also dedicated to designing an algorithm for computing the optimal distribution of teams based not only on companies’ requirements, but also on pedagogical aspects and students’ preferences. Furthermore, CSIC has conducted a systematic evaluation to show that the team formation algorithm outperforms state-of-the-art approaches[5]. \nA weekly meeting was setup between partners to share knowledge, to plan the activies, to align development, etc. \n\nExploitation of the AI4Europe platform \nThe architecture of AI4Citizen aims at pipelining the diﬀerent AI software modules and algorithms identiﬁed as necessary to produce a new service (competence and skill extraction, chatbot, and team formation), as well as at integrating them with the existing IT systems at FBK that currently handle the information about students (their professional studies and activities) and job oﬀers. Such orchestration and integration results in a prototype implementation for our end-to-end scenario.\n\n           Figure 2.1.3: Information Flow and Partner Responsibilities\n\nIn a nutshell, Figure 2.1.3 describes the logical architecture of the AI4Citizen pilot together with the partner in charge, which comprises the following elements:\nA module for interfacing with and integrating from the external — preexisting — IT system that contains and manages the information regarding students’ proﬁles, their activities and experiences, etc. Depending on the speciﬁc implementation of the external system, this module may require storing (a part of) the information internally, performing periodic synchronization, etc.\nA module for interfacing with and integrating from the external IT system that contains and manages information about job/internship oﬀers. Also, in this case the integration depends on speciﬁc implementation. \nData management services to facilitate the ”normalization” of the data in terms of vocabularies, taxonomies, for the purpose of the oﬀer / candidate matching. More speciﬁcally, the two key services here are: (i) skill matching to associate an entity with the skills and competences in the ESCO ontology; and (ii) a multi-dimensional classiﬁcation of internships to guide the selection process. The latter service characterizes oﬀers in diﬀerent useful ways (e.g. activity domain, geographical distribution, context (e.g. private vs. public hosting entities), etc.).\nA team formation service to match teams of students to internships taking into account competences, preferences, and availability in a holistic, cross-organizational, manner.\nAn internship browser that brings this information together, exposing diﬀerent APIs for searching, matching, and selecting oﬀers, as well as for storing preferences, and matching teams to available oﬀers. The component exposes the necessary APIs across for multi-channel information access and preference management.\nA chatbot-based Natural Language Processing (NLP) and User Interaction (UI) service and its associated chatbot logic component that make the AI4Citizen pilot available to the involved actors, in particular to students and teachers. While the role of the UI is to make AI4Citizen directly available on the web or a cell phone, the chatbot logic drives the selection process and helps collect students’ preferences.\n\n                         Figure 2.1.4: AI4Citizen assets\n\nAs reported in D6.1 and shown on figure 2.1.4, we published our resources in the AI4EU catatogs[6]. We recently integrated the two main reusable components: Competence &amp; Skills extraction and Team allocation on the AI4EU experiments platform. As the components were developed in parallel with the experiment platform, we did not leverage the platform at development time. The existing contractual framework and the GDPR constraints between FBK and the autonomous province of Trento also forbid to use it for deployment time but does not preclude to perform experiments with other available components.\nOur implementation follows the principles of the Cloud-Native Applications, and uses a container-based component model, where each separate micro-service is deployed in a Docker container on top of the Cloud infrastructure. Regarding our implementation, we deployed all components on the FBK cloud provided by MS Azure IaaS with the exception of the Chatbot NLP and UI component that run on the SAP cloud and interact with the SAP logic thanks to a REST API.\nEthical Assessment of the pilot\nFrom the inception of the AI4EU project, we thought that the AI4Citizen pilot had a special duty to address privacy and responsible AI thoughtfully. These topics are indeed critical for the acceptance of AI based services run by governments and government’s agencies and to reduce the fear of dystopian scenarios. The SWA case study itself is particularly demanding since the system needs to interact with minors that are considered as vulnerable persons[7] by the General Data Protection Regulation (EU) 2016/679. Supporting the decision of the recommendation for internships is also critical and, albeit diﬀerent, closely related to the high risk scenarios identiﬁed in the recent proposed European Artiﬁcial Intelligence Act[8] with respect to vocational training and employment. During the design phase, in relation with the GDPR and to be compliant with the existing contract between FBK and the region of Trento, we designed our solution to minimize the personal information exchanged between the components of the system. For example, the match between students and internships is done by a component hosted within the FBK network, similarly the matching algorithm only manipulates a set of preferences without access to students nor PII. The information exchanged by the components is clearly described by a set of public APIs avoiding direct access to the underlying database. Finally, communication is done over secure communication channels with client authentication.\nWith respect to the usage of AI, we analyzed the intent of the automation and the impact on the two types of users - students and professors - of the solution. For students, our solution enables to gather the student’s preferences by recommending a set of proposals based on the tagging done by the school and automated mapping to the job ontology, the ﬁt between the individual skills and the internship skills is provided as information and nothing precludes a student to choose a internship that exhibit a bad ﬁt. Since we are lacking students’ feedback on former internships, we unfortunately cannot currently provide further recommendations based on them. The eﬀective assignment of students to internships is ultimately done by the professor, our system - the edu2com component - is only providing a recommendation that relies on the preferences expressed by the diﬀerent students and the skills acquired during the curriculum mimicking the professor’s behaviour but exploring in an exhaustive manner the diﬀerent combinations. Still to support the professor to take an informed decision, we provide a metric that provides the overall solution ﬁt, the group ﬁt, and the individual ﬁt. On the last version of the system, we also introduced the possibility to the professor to challenge certain choices by asking targeted questions (cf. next section).\nTo cross check the soundness of our global approach, we evaluated our solution - each individual component and the end-to-end solution - against the preliminary questionnaire provided by the AI4EU ethical experts that is largely inspired by the ALTAI guidelines[9]. We did not detect violation to these principles and all components were below the high-risk level threshold except for the question 10. With respect to question 10 “Open-source code: Is the development participatory and multidisciplinary?, What kind of access to the code and development is there?”, we contest the assumption that non open source code are ranked in the low category while no studies linked the quality of software with the licensing terms. We perceived that he can be damageable from from an industrial perspective.\nThis collaboration contributed to the evolution of the assessment questionnaire that was later published in [10]. \nBusiness perspective for SWA alike scenario\n\n                        Figure 2.1.5: Data Driven Innovation analysis of AI4Citizen\nWhile it was not within the initial scope of the pilot and in order to better understand the potential business value of the AI4Citizen alike scenario, we decided to use the Data Driven Innovation Framework[11] (DDI) to help us to develop a consistent strategy and to explore all the dimensions of our use case, in order to potentially implement it outside Trento. The DDI Canvas guides you in exploring all relevant dimensions on the supply and demand side of a data-driven innovation in systematic manner. Using such methodology in research projects is unusual, but was the key to better understanding 1) the data required to realize a full ﬂedge version of our proof of concept, 2) to identify the network of actors required to achieve this vision, and 3) some avenues to make such software sustainable. This DDI use case was presented during EBDVF 2020[12].\nWith respect to data, we identiﬁed that currently the main gap was the lack of students’ feedbacks on former internships to enhance the advice provided by the system, similarly very few data are collected to improve the process itself and to capitalise on previous students’ interrogations. We strongly recommend to the institutes to collect such information in a systematic way and to share these data after anonymisation across institutes; this will be the unique way to propose better support to students. With respect to the ecosystem, while the institutes and the ministry of education are the principal actors, we believe that the students may beneﬁt from opening up to the business social network (e.g., LinkedIn, Twitter, Glassdoor) reﬂecting current practices in the business world in alignment with the rationales behind the SWA. While this can only be applied to 18 years old student, this will enable them to start to build a professional presence and business network, sharing insights on their experience and eventually get acknowledgements by their mentors or people from the company. With the proper connectors, this can also be a way to generate information in natural language that can also be retroﬁtted to the system. Finally, the cost to deploy, to maintain and to enrich such systems may beneﬁt from a modern approach that leverage not only the institutions but also other actors. While one can argue that it is against educative system ethic, a too conservative approach and the impact on resources to develop a smart software may pave the way to private companies that will propose orientation services that will be accessible by only privileged students. \n\n\nConclusion\nThe COVID-19 pandemia had a direct and strong impact on our original experimentation plan. Effective internships within the Italian Asl Scheme were basically stopped from January 2020 to the end of the project, the access to students for experimentation quite complex, and the professor had to handle emergency duties and to deal with the extra workload to setup distance learning and manage preventive measures.  We had no choice but to use labs and small scale experimentations, it also forbids us to gather students feedback on their SWA experiment that should have pave the way for a recommendation system to better help students to choose their internships (cf. gap identified by DDI).  Still the pilot managed to deliver an end to end process to support the process with components that will be used within the autonomous province of Trento. The Team formation components is also tested within other projects. The task activities have directly led to several publications and submissions[13]\n \n[1] In Italy Aternanza Scuola Lavor[1] (ASL or SWA)was established by the Law n. 107 – 2015 – https://www.gazzettaufficiale.it/eli/id/2015/07/15/15G00122/sg,more details can be found in the Italian Education Ministry (MIUR) website  http://www.alternanza.miur.gov.it/cos-e-alternanza.html\n[2] ESCO, European skills, competences, qualiﬁcations and occupations, https://ec.europa.eu/esco/portal (2010)\n[3] SAP Conversational AI https://cai.tools.sap/\n[4] IBM, Ibm ilog cplex optimization studio 12.10, https://www.ibm.com/us-en/marketplace/ibm-ilog-cplex (2019)\n[5] Athina Georgara, Carles Sierra, Juan A. Rodríguez-Aguilar. TAIP: an anytime algorithm for allocating student teams to internship programs. In The 11th International Workshop and Optimization and Learning in Multiagent Systems.\n\n[6] https://www.ai4europe.eu/research/ai-catalog \n[7] GDPR: who are considered as vulnerable persons? https://onderzoektips.ugent.be/en/tips/00001782/\n[8] Proposal for a regulation laying down harmonised rules on artificial intelligence (artificial intelligence act) (May 2021). URL https://digital-strategy.ec.europa.eu/en/library/proposal-regulation-laying-down-harmonised-rules-artificial\n[9] H.-L. E. G. on Artificial Intelligence\\\", Assessment list for trustworthy artificial intelligence (July 2020). https://digital-strategy.ec.europa.eu/en/library/assessment-list-trustworthy-artificial-intelligence-altai-self-assessment\n[10] V. Dignum, J. C. Nieves, A. Theodorou, A. A. Tubella, An abbreviated assessment list to support the responsible development and use of AI (April 2021).\n https://webapps.cs.umu.se/uminf/index.cgi?year=2021&amp;number=3\n[11] https://ddi-canvas.com/ Prof. Sonja Zillner\n[12] We are proud to present the DDI Framework at the EBDVF – the yearly flagship event of the European Data &amp; AI community. Together with SAP and Atos we want through two AI4EU pilots and real life cases, where we were able to demonstrate the layout and application of the DDI Canvas. In our workshop session with over 100 attendees. https://ddi-canvas.com/introducing-the-ddi-framework-at-the-european-big-data-value-forum/ \n[13] Athina Georgara, Raman Kazhamiakin, Ornella Mich, Alessio Palmero Aprosio, Jean-Christophe Pazzaglia, Juan A. Rodríguez-Aguilar, Carles Sierra. An anytime heuristic algorithm for allocating many teams to many tasks. Submitted to the 21st International Conference on Autonomous Agents and Multiagent Systems (AAMAS 2022). Ranking CORE: A*. \nAthina Georgara, Juan A. Rodríguez-Aguilar, Carles Sierra. Towards a competence-based approach to allocate teams to tasks. In Proceedings of the 20th international conference on autonomous agents and multiagent systems (AAMAS 2021), pp. 1504-1506, London, UK, May 3-7, 2021. Ranking CORE: A*. \nAthina Georgara, Juan A. Rodríguez-Aguilar, Carles Sierra. Edu2Com: an anytime algorithm to form student teams in companies. In IJCAI 2020 Workshop on AI for Social Good. Published at: https://crcs.seas.harvard.edu/files/crcs/files/ai4sg_2020_paper_18.pdf \nAI4EU in practice: the industrial pilots perspective – EBDVF 2021 session\nAthina Georgara, Juan A. Rodríguez-Aguilar, Carles Sierra. TAIP: an anytime algorithm for allocating student teams to internship programs. In 11th International Workshop on Optimization and Learning in Multiagent Systems, Auckland, New Zealand, May 8th 2020. Published as arXiv:2005.09331. \n",
  "publisher": "Athina Georgara (IIIA-CSIC), Raman Kazhamiakin(FBK), Ornella Mich (FBK) Jean-Christophe Pazzaglia (SAP), Juan Antonio Rodríguez-Aguilar (IIIA-CSIC)",
  "website": "http://",
  "keywords": [],
  "mediaurls": [],
  "papers_ids": [],
  "datasets_ids": [],
  "industry_sectors_ids": [
    10
  ],
  "application_areas_ids": [
    7
  ],
  "research_areas_ids": [
    4,
    11,
    0,
    13
  ],
  "dateModified": {
    "$date": "2023-06-20T15:13:52.360Z"
  },
  "datePublished": {
    "$date": "2023-06-20T15:12:32.260Z"
  }
},
{
  "_id": {
    "$oid": "6491a687823f480d29688340"
  },
  "identifier": 7,
  "title": "AI in EV charging infrastructure",
  "summary": "Better prediction of impeding changes in retail client load distribution due to the increasing numbers of EVs in Greece. Prediction of availability of publicly available charging stations.",
  "description": "What is the challenge that is being addressed?\nThe pilot involves the following 2 entities: HERON is the largest private energy supplier in Greece and provides electricity to multiple home or businesses that are equipped with EV charging stations. HERON supported by PARITY will collect data on the EV charging behaviour of drivers to identify average EV charging transaction duration, frequency of chargers per vehicle, time of day that most charges occur, types and capacity of chargers used. HERON aims to adapt its current retail energy offerings to clients that have an EV station in their premises and develop algorithms to better predict the load distribution from its consumers. PARITY will identify patterns in the charging transactions in publicly accessible charging stations to develop incentives for drivers to distribute charging load evenly across public charging stations and time intervals. In that way the public charging stations will be managed more efficiently, waiting times will be reduced and flexibility of the grid will be improved.\n \nWhat is the AI solution the project plans to implement?\nPatterns regarding time distribution and attributes of EV charging transactions in private and public charging stations will be identified. This will enable HERON to develop algorithms to better predict impeding changes in retail client load distribution due to the increasing numbers of EVs in Greece. PARITY will utilise the dataset to develop algorithms to predict availability of publicly available charging stations, based on data collected for time distribution and average duration of charge transactions. Using that data PARITY will incorporate variable pricing for charging transactions in stations it owns/operates. Variable pricing algorithms will enable charge point operators to utilise charging stations more efficiently and even-out load across stations and time intervals.\n \nWho will help implement this solution?\nThis pilot is implemented within the framework of the “I-NΕRGΥ: Artificial Intelligence for Next Generation Energy” Project. The I-NERGY Project has received funding from the European Union's Horizon 2020 Research and Innovation programme under grant agreement No. 101016508.",
  "publisher": "HERON, PARITY ",
  "website": "https://i-nergy.eu/pilots",
  "keywords": [],
  "mediaurls": [],
  "papers_ids": [],
  "datasets_ids": [],
  "industry_sectors_ids": [
    0
  ],
  "application_areas_ids": [
    13,
    11,
    12
  ],
  "research_areas_ids": [
    18
  ],
  "dateModified": {
    "$date": "2023-06-20T16:40:05.701Z"
  },
  "datePublished": {
    "$date": "2023-06-20T15:15:51.050Z"
  },
  "publications_ids": []
},
{
  "_id": {
    "$oid": "6491a71e823f480d29688342"
  },
  "identifier": 8,
  "title": "AI for peer-to-peer renewable energy trading in virtual energy community",
  "summary": "Investigating opportunities for prosumers as providers of balancing and ancillary services in the energy market.",
  "description": "What is the challenge that is being addressed?\nInstalled capacity of PV power plants is increasing, and solar energy is already a mainstream energy source. Falling costs of technology together with digitalisation is creating opportunities for new business models, such as peer-to-peer energy trading, virtual power plants or local energy sharing. However, in order to achieve a high share of variable distributed energy sources in the power system, a number of challenges must be overcome. Those challenges can be divided into techno-economic and regulatory-social. In this context, techno-economic solutions based on AI analytics and valuable recommendations for policy makers will be provided, based on the pilot site and implementation of new regulatory framework. The objectives to be reached within this pilot include: organisation of approximately 100 prosumers (namely households) equipped with solar PV power plants in the virtual energy community; utilisation of AI analytics developed within the project for the goal to allow peer-to-peer energy trading within the community; utilisation of AI analytics developed within the project for the goal to allow appearance of the virtual energy community on the auxiliary services market; developing policy recommendations based on the project experience.\n \nWhat is the AI solution the project plans to implement?\nThe prosumers involved in the project will be distributed in at least 5 geographical areas (focusing on cities in Croatia that are already closely collaborating with ZEZ within the Accelerator). The virtual energy community will act on four levels:\nSocial level: Citizens organised in a virtual energy community will become a core of know-how in renewable energy projects and use gained experience for implementation of local initiatives – to further utilize local RES potential to encourage growth of local economy, cooperation, social innovation, education, improving local services and local job creation.\nPeer-to-peer energy trading within the virtual energy community: The AI-based platform should provide means for energy trading within the community. The implementation of this level is dependent on the regulatory framework, as peer-to-peer energy trading can be implemented in different ways - either directly between market participants or indirectly through a certified third-party market participant, such as an aggregator.\nEntering of the virtual energy community on the auxiliary services market: The community can act as a virtual power plant on the market and therefore provide auxiliary service to the system operators. Implementation of this provision is also dependent on the regulatory framework in Croatia, which still does not foress virtual power plants. However, due to the course of the project it is expected to be allowed.\nPolicy recommendations: The close cooperation with regulators and market operators as well as with academic institutions is foreseen to support the fast dissemination of lessons learned in adaptation of the regulatory framework.\nInvestigating opportunities for prosumers as providers of balancing and ancillary services in the energy market; Support policy change through advocacy for energy communities, new prosumer business models, virtual power plants, P2P trading; Develop collaboration model which will be easily replicable, and demonstrate the added value of a virtual energy community for further utilising RES local potential and growth of local economy; Demonstrate the impact of active participation of prosumers in the energy market on behavioural patterns of consumers and their energy needs, environment, and quality of life; Education of citizens and creating favourable social momentum.\n \nWho will help implement this solution?\nThis pilot is implemented within the framework of the “I-NΕRGΥ: Artificial Intelligence for Next Generation Energy” Project. The I-NERGY Project has received funding from the European Union's Horizon 2020 Research and Innovation programme under grant agreement No. 101016508.",
  "publisher": "ZEZcoop",
  "website": "https://i-nergy.eu/pilots",
  "keywords": [],
  "mediaurls": [
    "https://cdn.pixabay.com/photo/2017/04/05/15/14/current-2205252_1280.jpg",
    "https://cdn.pixabay.com/photo/2019/06/25/04/40/light-bulb-4297386_1280.jpg"
  ],
  "papers_ids": [],
  "datasets_ids": [
    2,
    10
  ],
  "industry_sectors_ids": [
    0
  ],
  "application_areas_ids": [
    14
  ],
  "research_areas_ids": [
    18
  ],
  "dateModified": {
    "$date": "2023-06-21T11:00:38.858Z"
  },
  "datePublished": {
    "$date": "2023-06-20T15:18:22.329Z"
  },
  "publications_ids": [
    3
  ]
},
{
  "_id": {
    "$oid": "6491a815823f480d29688343"
  },
  "identifier": 9,
  "title": "AI for energy efficiency investments de-risking ",
  "summary": "Reducing the uncertainty linked to energy efficiency investments, which can be attributed to the lack of relevant skills and ability to assess investments.",
  "description": "What is the challenge that is being addressed?\nEnergy efficiency projects are often fragmented, with high transaction costs, while with no evidence-based platform that would allow investors and financial institutions to assess the risk-, the financial performance of the investments, as well as the impact on energy efficiency. The capability offered by emerging AI analytics to integrate cross-domain financial and energy consumption is the key for building the necessary market confidence in energy efficiency projects and making them an attractive investment asset class. The use of historical data pooled from major market segments can encourage more energy efficiency investments and de-risk investments.\n \nWhat is the AI solution the project plans to implement?\nThis pilot will demonstrate I-NERGY framework through cross-domain integration of a variety of heterogeneous historical and live data on financial performance, underlying energy efficiency impact of the investments, through historical extensive smart meters data integration. The aim is to collect and process data from smart meters, and apply machine learning algorithms, through ML algorithms, in order to better predict energy consumption and calculate and monitor the energy savings achieved. As a result, Energy Performance Contracting (EPC) and other energy investments will be more reliable, cost-effective, and of better quality.\nThe pilot will reduce the uncertainty linked to energy efficiency investments, which can be attributed to the lack of relevant skills and ability to assess investments. It will strengthen debt and equity financing of energy efficiency projects. AI models will provide investors / financiers and project developers the opportunity to: evaluate quickly and easily key performance indicators for projects (analysis and assessment techniques for projects and companies, benchmark tools, financial performance indicators for investors, special indicators ‘Green barometer’, written analysis); Explore past and future projects (project history, synopsis, projects/companies more attractive to investors); Make a profound risk measurement and evaluation (implement key indicators, such as debt service coverage ratio, integrate a cross-check for legal requirements of environmental laws and regulations).\n \nWho will help implement this solution?\nThis pilot is implemented within the framework of the “I-NΕRGΥ: Artificial Intelligence for Next Generation Energy” Project. The I-NERGY Project has received funding from the European Union's Horizon 2020 Research and Innovation programme under grant agreement No. 101016508.",
  "publisher": "REA",
  "website": "https://i-nergy.eu/pilots",
  "keywords": [],
  "mediaurls": [],
  "papers_ids": [],
  "datasets_ids": [
    2,
    4,
    8
  ],
  "industry_sectors_ids": [
    0
  ],
  "application_areas_ids": [
    10
  ],
  "research_areas_ids": [
    18
  ],
  "dateModified": {
    "$date": "2023-06-20T17:26:06.918Z"
  },
  "datePublished": {
    "$date": "2023-06-20T15:22:29.420Z"
  },
  "publications_ids": [
    3,
    7
  ]
}]