<svg fill="none" height="16" viewBox="0 0 16 16" width="16" xmlns="http://www.w3.org/2000/svg">
    <g id="search">
        <path d="M7.33333 12.6667C10.2789 12.6667 12.6667 10.2789 12.6667 7.33333C12.6667 4.38781 10.2789 2 7.33333 2C4.38781 2 2 4.38781 2 7.33333C2 10.2789 4.38781 12.6667 7.33333 12.6667Z"
              id="Vector"
              stroke="#909090" stroke-linecap="round" stroke-linejoin="round" stroke-width="2"/>
        <path d="M13.9996 14L11.0996 11.1" id="Vector_2" stroke="#909090" stroke-linecap="round" stroke-linejoin="round"
              stroke-width="2"/>
    </g>
</svg>
